{
    "/js/app.js": "/js/app.js",
    "/js/jquery.js": "/js/jquery.js",
    "/css/app.css": "/css/app.css",
    "/css/all.min.css": "/css/all.min.css",
    "/css/tempusdominus-bootstrap-4.min.css": "/css/tempusdominus-bootstrap-4.min.css",
    "/css/icheck-bootstrap.min.css": "/css/icheck-bootstrap.min.css",
    "/css/adminlte.min.css": "/css/adminlte.min.css",
    "/css/OverlayScrollbars.min.css": "/css/OverlayScrollbars.min.css",
    "/css/daterangepicker.css": "/css/daterangepicker.css",
    "/css/bootstrap-4.css": "/css/bootstrap-4.css",
    "/js/adminlte.min.js": "/js/adminlte.min.js",
    "/js/sweetalert2.all.js": "/js/sweetalert2.all.js",
    "/js/jquery-ui.min.js": "/js/jquery-ui.min.js",
    "/js/jquery.min.js": "/js/jquery.min.js",
    "/js/bootstrap.bundle.min.js": "/js/bootstrap.bundle.min.js",
    "/js/Chart.min.js": "/js/Chart.min.js",
    "/js/jquery.knob.min.js": "/js/jquery.knob.min.js",
    "/js/moment.min.js": "/js/moment.min.js",
    "/js/daterangepicker.js": "/js/daterangepicker.js",
    "/js/tempusdominus-bootstrap-4.min.js": "/js/tempusdominus-bootstrap-4.min.js",
    "/js/jquery.overlayScrollbars.min.js": "/js/jquery.overlayScrollbars.min.js",
    "/js/adminlte.js": "/js/adminlte.js",
    "/images/AdminLTELogo.png": "/images/AdminLTELogo.png",
    "/images/avatar.png": "/images/avatar.png",
    "/images/avatar2.png": "/images/avatar2.png",
    "/images/avatar3.png": "/images/avatar3.png",
    "/images/avatar4.png": "/images/avatar4.png",
    "/images/avatar5.png": "/images/avatar5.png",
    "/images/boxed-bg.jpg": "/images/boxed-bg.jpg",
    "/images/boxed-bg.png": "/images/boxed-bg.png",
    "/images/credit/american-express.png": "/images/credit/american-express.png",
    "/images/credit/cirrus.png": "/images/credit/cirrus.png",
    "/images/credit/mastercard.png": "/images/credit/mastercard.png",
    "/images/credit/paypal.png": "/images/credit/paypal.png",
    "/images/credit/paypal2.png": "/images/credit/paypal2.png",
    "/images/credit/visa.png": "/images/credit/visa.png",
    "/images/default-150x150.png": "/images/default-150x150.png",
    "/images/icons.png": "/images/icons.png",
    "/images/photo1.png": "/images/photo1.png",
    "/images/photo2.png": "/images/photo2.png",
    "/images/photo3.jpg": "/images/photo3.jpg",
    "/images/photo4.jpg": "/images/photo4.jpg",
    "/images/prod-1.jpg": "/images/prod-1.jpg",
    "/images/prod-2.jpg": "/images/prod-2.jpg",
    "/images/prod-3.jpg": "/images/prod-3.jpg",
    "/images/prod-4.jpg": "/images/prod-4.jpg",
    "/images/prod-5.jpg": "/images/prod-5.jpg",
    "/images/user1-128x128.jpg": "/images/user1-128x128.jpg",
    "/images/user2-160x160.jpg": "/images/user2-160x160.jpg",
    "/images/user3-128x128.jpg": "/images/user3-128x128.jpg",
    "/images/user4-128x128.jpg": "/images/user4-128x128.jpg",
    "/images/user5-128x128.jpg": "/images/user5-128x128.jpg",
    "/images/user6-128x128.jpg": "/images/user6-128x128.jpg",
    "/images/user7-128x128.jpg": "/images/user7-128x128.jpg",
    "/images/user8-128x128.jpg": "/images/user8-128x128.jpg",
    "/webfonts/fa-brands-400.eot": "/webfonts/fa-brands-400.eot",
    "/webfonts/fa-brands-400.svg": "/webfonts/fa-brands-400.svg",
    "/webfonts/fa-brands-400.ttf": "/webfonts/fa-brands-400.ttf",
    "/webfonts/fa-brands-400.woff": "/webfonts/fa-brands-400.woff",
    "/webfonts/fa-brands-400.woff2": "/webfonts/fa-brands-400.woff2",
    "/webfonts/fa-regular-400.eot": "/webfonts/fa-regular-400.eot",
    "/webfonts/fa-regular-400.svg": "/webfonts/fa-regular-400.svg",
    "/webfonts/fa-regular-400.ttf": "/webfonts/fa-regular-400.ttf",
    "/webfonts/fa-regular-400.woff": "/webfonts/fa-regular-400.woff",
    "/webfonts/fa-regular-400.woff2": "/webfonts/fa-regular-400.woff2",
    "/webfonts/fa-solid-900.eot": "/webfonts/fa-solid-900.eot",
    "/webfonts/fa-solid-900.svg": "/webfonts/fa-solid-900.svg",
    "/webfonts/fa-solid-900.ttf": "/webfonts/fa-solid-900.ttf",
    "/webfonts/fa-solid-900.woff": "/webfonts/fa-solid-900.woff",
    "/webfonts/fa-solid-900.woff2": "/webfonts/fa-solid-900.woff2"
}
